id;tmdb_id;name
1;7998;bus 24/7
2;48730;Intelligent Licensed Steel Bacon
3;36567;Marketing withdrawal deposit
4;79497;interface Stream productize
5;20869;Facilitator PCI Facilitator
6;30518;mint green
7;6860;Bahamas Internal
8;40844;withdrawal Personal Loan Account fuchsia
9;81831;Product Fantastic Concrete Fish
10;3791;Borders back up Small
